{"currentPage":1,"totalItems":16038,"totalPages":642,"items":[{"id":80200773,"eventId":667210,"siteUnitNumber":12616,"bathingSite":"GURNARD","eventStart":"2022-11-15T05:49:51","eventStop":"2022-11-16T21:00:01.817","duration":2350,"activity":"Genuine ","associatedSiteId":109652,"outfallName":"WOODVALE TRANSFER NO2","isImpacting":false},{"id":80200809,"eventId":667456,"siteUnitNumber":12661,"bathingSite":"LANGSTONE HARBOUR","eventStart":"2022-11-15T09:00:00","eventStop":"2022-11-16T21:00:01.817","duration":2160,"activity":"Genuine ","associatedSiteId":109773,"outfallName":"BUDDS FARM HAVANT NO2","isImpacting":false},{"id":80200810,"eventId":667462,"siteUnitNumber":12661,"bathingSite":"LANGSTONE HARBOUR","eventStart":"2022-11-15T09:04:35","eventStop":"2022-11-16T21:00:01.817","duration":2155,"activity":"Genuine ","associatedSiteId":109773,"outfallName":"BUDDS FARM HAVANT NO2","isImpacting":false},{"id":80201326,"eventId":667638,"siteUnitNumber":12596,"bathingSite":"PAGHAM","eventStart":"2022-11-15T10:11:51","eventStop":"2022-11-16T21:00:01.817","duration":2088,"activity":"Genuine ","associatedSiteId":109791,"outfallName":"SIDLESHAM","isImpacting":false},{"id":80204964,"eventId":667199,"siteUnitNumber":12617,"bathingSite":"COWES","eventStart":"2022-11-15T05:20:00","eventStop":"2022-11-16T21:00:01.817","duration":2380,"activity":"Genuine ","associatedSiteId":109704,"outfallName":"EGYPT POINT COWES","isImpacting":false},{"id":80204981,"eventId":667293,"siteUnitNumber":12591,"bathingSite":"LITTLEHAMPTON","eventStart":"2022-11-15T08:04:00","eventStop":"2022-11-16T21:00:01.817","duration":2216,"activity":"Genuine - Non Impacting","associatedSiteId":109965,"outfallName":"SEA ROAD LITTLEHAMPTON","isImpacting":false},{"id":80205023,"eventId":667222,"siteUnitNumber":12618,"bathingSite":"RYDE","eventStart":"2022-11-15T05:56:02","eventStop":"2022-11-16T21:00:01.817","duration":2343,"activity":"Genuine ","associatedSiteId":109777,"outfallName":"APPLEY PARK RYDE TRANSFER","isImpacting":false},{"id":80205775,"eventId":667222,"siteUnitNumber":12617,"bathingSite":"COWES","eventStart":"2022-11-15T05:56:02","eventStop":"2022-11-16T21:00:01.817","duration":2343,"activity":"Genuine - Non Impacting","associatedSiteId":109777,"outfallName":"APPLEY PARK RYDE TRANSFER","isImpacting":false},{"id":80201017,"eventId":667210,"siteUnitNumber":12617,"bathingSite":"COWES","eventStart":"2022-11-15T05:49:51","eventStop":"2022-11-16T21:00:01.817","duration":2350,"activity":"Genuine ","associatedSiteId":109652,"outfallName":"WOODVALE TRANSFER NO2","isImpacting":false},{"id":80201561,"eventId":667659,"siteUnitNumber":12615,"bathingSite":"COLWELL BAY","eventStart":"2022-11-15T10:38:13","eventStop":"2022-11-16T21:00:01.817","duration":2061,"activity":"Genuine - Non Impacting","associatedSiteId":109657,"outfallName":"THE PROMENADE TOTLAND PIER NO2","isImpacting":false},{"id":80201792,"eventId":668939,"siteUnitNumber":12549,"bathingSite":"HERNE BAY CENTRAL","eventStart":"2022-11-16T08:04:13","eventStop":"2022-11-16T21:00:01.817","duration":775,"activity":"Genuine - Non Impacting","associatedSiteId":109830,"outfallName":"SWALECLIFFE NO1","isImpacting":false},{"id":80202038,"eventId":669421,"siteUnitNumber":12551,"bathingSite":"HERNE BAY","eventStart":"2022-11-16T12:30:25","eventStop":"2022-11-16T21:00:01.817","duration":509,"activity":"Genuine ","associatedSiteId":109682,"outfallName":"MAY STREET HERNE BAY NO3","isImpacting":false},{"id":80202227,"eventId":668939,"siteUnitNumber":12548,"bathingSite":"TANKERTON","eventStart":"2022-11-16T08:04:13","eventStop":"2022-11-16T21:00:01.817","duration":775,"activity":"Genuine ","associatedSiteId":109830,"outfallName":"SWALECLIFFE NO1","isImpacting":false},{"id":80202342,"eventId":667659,"siteUnitNumber":12614,"bathingSite":"TOTLAND BAY","eventStart":"2022-11-15T10:38:13","eventStop":"2022-11-16T21:00:01.817","duration":2061,"activity":"Genuine - Non Impacting","associatedSiteId":109657,"outfallName":"THE PROMENADE TOTLAND PIER NO2","isImpacting":false},{"id":80202708,"eventId":667350,"siteUnitNumber":12618,"bathingSite":"RYDE","eventStart":"2022-11-15T08:00:00","eventStop":"2022-11-16T21:00:01.817","duration":2220,"activity":"Genuine ","associatedSiteId":109778,"outfallName":"PRINCE CONSORT RYDE NEW","isImpacting":false},{"id":80203011,"eventId":667785,"siteUnitNumber":12596,"bathingSite":"PAGHAM","eventStart":"2022-11-15T11:39:05","eventStop":"2022-11-16T21:00:01.817","duration":2000,"activity":"Genuine ","associatedSiteId":109911,"outfallName":"SUMMER LANE PAGHAM","isImpacting":false},{"id":80203263,"eventId":669722,"siteUnitNumber":12617,"bathingSite":"COWES","eventStart":"2022-11-16T15:55:00","eventStop":"2022-11-16T21:00:01.817","duration":305,"activity":"Genuine - Non Impacting","associatedSiteId":109700,"outfallName":"MARKET HILL COWES","isImpacting":false},{"id":80203691,"eventId":669722,"siteUnitNumber":12616,"bathingSite":"GURNARD","eventStart":"2022-11-16T15:55:00","eventStop":"2022-11-16T21:00:01.817","duration":305,"activity":"Genuine - Non Impacting","associatedSiteId":109700,"outfallName":"MARKET HILL COWES","isImpacting":false},{"id":80204122,"eventId":668438,"siteUnitNumber":12595,"bathingSite":"BOGNOR REGIS (ALDWICK)","eventStart":"2022-11-15T19:56:00","eventStop":"2022-11-16T21:00:01.817","duration":1504,"activity":"Genuine - Non Impacting","associatedSiteId":109959,"outfallName":"WEST PARK BOGNOR REGIS","isImpacting":false},{"id":80204488,"eventId":668438,"siteUnitNumber":12596,"bathingSite":"PAGHAM","eventStart":"2022-11-15T19:56:00","eventStop":"2022-11-16T21:00:01.817","duration":1504,"activity":"Genuine - Non Impacting","associatedSiteId":109959,"outfallName":"WEST PARK BOGNOR REGIS","isImpacting":false},{"id":80204489,"eventId":668438,"siteUnitNumber":12594,"bathingSite":"BOGNOR REGIS EAST","eventStart":"2022-11-15T19:56:00","eventStop":"2022-11-16T21:00:01.817","duration":1504,"activity":"Genuine ","associatedSiteId":109959,"outfallName":"WEST PARK BOGNOR REGIS","isImpacting":false},{"id":80205136,"eventId":668677,"siteUnitNumber":12591,"bathingSite":"LITTLEHAMPTON","eventStart":"2022-11-16T02:34:33","eventStop":"2022-11-16T21:00:01.817","duration":1105,"activity":"Genuine ","associatedSiteId":109968,"outfallName":"FORD ROAD ARUNDEL","isImpacting":false},{"id":80205842,"eventId":667364,"siteUnitNumber":12662,"bathingSite":"CHICHESTER HARBOUR","eventStart":"2022-11-15T08:03:37","eventStop":"2022-11-16T21:00:01.817","duration":2216,"activity":"Genuine ","associatedSiteId":109850,"outfallName":"THORNHAM","isImpacting":false},{"id":80205976,"eventId":667199,"siteUnitNumber":12616,"bathingSite":"GURNARD","eventStart":"2022-11-15T05:20:00","eventStop":"2022-11-16T21:00:01.817","duration":2380,"activity":"Genuine - Non Impacting","associatedSiteId":109704,"outfallName":"EGYPT POINT COWES","isImpacting":false},{"id":80206250,"eventId":668900,"siteUnitNumber":12576,"bathingSite":"ST LEONARDS","eventStart":"2022-11-16T07:44:35","eventStop":"2022-11-16T21:00:01.817","duration":795,"activity":"Genuine ","associatedSiteId":109903,"outfallName":"BEXHILL & HASTINGS NO2","isImpacting":false}]},{"currentPage":1,"totalItems":16706,"totalPages":669,"items":[{"id":80200773,"eventId":667210,"siteUnitNumber":12616,"bathingSite":"GURNARD","eventStart":"2022-11-15T05:49:51","eventStop":"2022-11-16T21:00:01.817","duration":2350,"activity":"Genuine ","associatedSiteId":109652,"outfallName":"WOODVALE TRANSFER NO2","isImpacting":false},{"id":80200809,"eventId":667456,"siteUnitNumber":12661,"bathingSite":"LANGSTONE HARBOUR","eventStart":"2022-11-15T09:00:00","eventStop":"2022-11-16T21:00:01.817","duration":2160,"activity":"Genuine ","associatedSiteId":109773,"outfallName":"BUDDS FARM HAVANT NO2","isImpacting":false},{"id":80200810,"eventId":667462,"siteUnitNumber":12661,"bathingSite":"LANGSTONE HARBOUR","eventStart":"2022-11-15T09:04:35","eventStop":"2022-11-16T21:00:01.817","duration":2155,"activity":"Genuine ","associatedSiteId":109773,"outfallName":"BUDDS FARM HAVANT NO2","isImpacting":false},{"id":80201312,"eventId":669832,"siteUnitNumber":12618,"bathingSite":"RYDE","eventStart":"2022-11-16T16:46:54","eventStop":"2022-11-16T21:00:01.817","duration":253,"activity":"Under Review ","associatedSiteId":109787,"outfallName":"SALTERNS ROAD SEAVIEW","isImpacting":false},{"id":80201326,"eventId":667638,"siteUnitNumber":12596,"bathingSite":"PAGHAM","eventStart":"2022-11-15T10:11:51","eventStop":"2022-11-16T21:00:01.817","duration":2088,"activity":"Genuine ","associatedSiteId":109791,"outfallName":"SIDLESHAM","isImpacting":false},{"id":80201750,"eventId":670197,"siteUnitNumber":12606,"bathingSite":"LEE-ON-SOLENT","eventStart":"2022-11-16T19:15:00","eventStop":"2022-11-16T21:00:01.817","duration":105,"activity":"Under Review - Non Impacting","associatedSiteId":109717,"outfallName":"NEWGATE LANE PEEL COMMON","isImpacting":false},{"id":80201761,"eventId":670197,"siteUnitNumber":12607,"bathingSite":"HILLHEAD","eventStart":"2022-11-16T19:15:00","eventStop":"2022-11-16T21:00:01.817","duration":105,"activity":"Under Review - Non Impacting","associatedSiteId":109717,"outfallName":"NEWGATE LANE PEEL COMMON","isImpacting":false},{"id":80202571,"eventId":658534,"siteUnitNumber":12549,"bathingSite":"HERNE BAY CENTRAL","eventStart":"2022-11-06T12:15:00","eventStop":"2022-11-16T21:00:01.817","duration":14925,"activity":"Not Genuine ","associatedSiteId":109676,"outfallName":"KINGS HALL HERNE BAY A","isImpacting":false},{"id":80202572,"eventId":658534,"siteUnitNumber":12551,"bathingSite":"HERNE BAY","eventStart":"2022-11-06T12:15:00","eventStop":"2022-11-16T21:00:01.817","duration":14925,"activity":"Not Genuine ","associatedSiteId":109676,"outfallName":"KINGS HALL HERNE BAY A","isImpacting":false},{"id":80204964,"eventId":667199,"siteUnitNumber":12617,"bathingSite":"COWES","eventStart":"2022-11-15T05:20:00","eventStop":"2022-11-16T21:00:01.817","duration":2380,"activity":"Genuine ","associatedSiteId":109704,"outfallName":"EGYPT POINT COWES","isImpacting":false},{"id":80204981,"eventId":667293,"siteUnitNumber":12591,"bathingSite":"LITTLEHAMPTON","eventStart":"2022-11-15T08:04:00","eventStop":"2022-11-16T21:00:01.817","duration":2216,"activity":"Genuine - Non Impacting","associatedSiteId":109965,"outfallName":"SEA ROAD LITTLEHAMPTON","isImpacting":false},{"id":80205023,"eventId":667222,"siteUnitNumber":12618,"bathingSite":"RYDE","eventStart":"2022-11-15T05:56:02","eventStop":"2022-11-16T21:00:01.817","duration":2343,"activity":"Genuine ","associatedSiteId":109777,"outfallName":"APPLEY PARK RYDE TRANSFER","isImpacting":false},{"id":80205775,"eventId":667222,"siteUnitNumber":12617,"bathingSite":"COWES","eventStart":"2022-11-15T05:56:02","eventStop":"2022-11-16T21:00:01.817","duration":2343,"activity":"Genuine - Non Impacting","associatedSiteId":109777,"outfallName":"APPLEY PARK RYDE TRANSFER","isImpacting":false},{"id":80201017,"eventId":667210,"siteUnitNumber":12617,"bathingSite":"COWES","eventStart":"2022-11-15T05:49:51","eventStop":"2022-11-16T21:00:01.817","duration":2350,"activity":"Genuine ","associatedSiteId":109652,"outfallName":"WOODVALE TRANSFER NO2","isImpacting":false},{"id":80201020,"eventId":670010,"siteUnitNumber":12618,"bathingSite":"RYDE","eventStart":"2022-11-16T17:15:00","eventStop":"2022-11-16T21:00:01.817","duration":225,"activity":"Under Review - Non Impacting","associatedSiteId":102971,"outfallName":"SPRING VALE","isImpacting":false},{"id":80201170,"eventId":669991,"siteUnitNumber":12661,"bathingSite":"LANGSTONE HARBOUR","eventStart":"2022-11-16T18:02:25","eventStop":"2022-11-16T21:00:01.817","duration":177,"activity":"Under Review ","associatedSiteId":109772,"outfallName":"BUDDS FARM HAVANT NO1","isImpacting":false},{"id":80201184,"eventId":669815,"siteUnitNumber":12618,"bathingSite":"RYDE","eventStart":"2022-11-16T16:40:26","eventStop":"2022-11-16T21:00:01.817","duration":259,"activity":"Under Review ","associatedSiteId":109790,"outfallName":"GREAT PRESTON ROAD RYDE","isImpacting":false},{"id":80201211,"eventId":670049,"siteUnitNumber":12618,"bathingSite":"RYDE","eventStart":"2022-11-16T18:18:00","eventStop":"2022-11-16T21:00:01.817","duration":162,"activity":"Under Review - Non Impacting","associatedSiteId":109785,"outfallName":"SIMEON STREET RYDE","isImpacting":false},{"id":80201249,"eventId":669815,"siteUnitNumber":12619,"bathingSite":"SEAGROVE","eventStart":"2022-11-16T16:40:26","eventStop":"2022-11-16T21:00:01.817","duration":259,"activity":"Under Review ","associatedSiteId":109790,"outfallName":"GREAT PRESTON ROAD RYDE","isImpacting":false},{"id":80201370,"eventId":670049,"siteUnitNumber":12619,"bathingSite":"SEAGROVE","eventStart":"2022-11-16T18:18:00","eventStop":"2022-11-16T21:00:01.817","duration":162,"activity":"Under Review - Non Impacting","associatedSiteId":109785,"outfallName":"SIMEON STREET RYDE","isImpacting":false},{"id":80201396,"eventId":670054,"siteUnitNumber":12618,"bathingSite":"RYDE","eventStart":"2022-11-16T18:20:54","eventStop":"2022-11-16T21:00:01.817","duration":159,"activity":"Under Review - Non Impacting","associatedSiteId":109779,"outfallName":"ASHEY ROAD RYDE","isImpacting":false},{"id":80201408,"eventId":669740,"siteUnitNumber":12604,"bathingSite":"SOUTHSEA EAST","eventStart":"2022-11-16T16:23:23","eventStop":"2022-11-16T21:00:01.817","duration":276,"activity":"Under Review ","associatedSiteId":109822,"outfallName":"PIER ROAD SOUTHSEA","isImpacting":false},{"id":80201457,"eventId":670044,"siteUnitNumber":12661,"bathingSite":"LANGSTONE HARBOUR","eventStart":"2022-11-16T18:15:00","eventStop":"2022-11-16T21:00:01.817","duration":165,"activity":"Under Review - Non Impacting","associatedSiteId":109823,"outfallName":"FORT CUMBERLAND NO1","isImpacting":false},{"id":80201462,"eventId":670044,"siteUnitNumber":12604,"bathingSite":"SOUTHSEA EAST","eventStart":"2022-11-16T18:15:00","eventStop":"2022-11-16T21:00:01.817","duration":165,"activity":"Under Review - Non Impacting","associatedSiteId":109823,"outfallName":"FORT CUMBERLAND NO1","isImpacting":false},{"id":80201505,"eventId":669832,"siteUnitNumber":12619,"bathingSite":"SEAGROVE","eventStart":"2022-11-16T16:46:54","eventStop":"2022-11-16T21:00:01.817","duration":253,"activity":"Under Review ","associatedSiteId":109787,"outfallName":"SALTERNS ROAD SEAVIEW","isImpacting":false}]},{"currentPage":2,"totalItems":16706,"totalPages":669,"items":[{"id":80201561,"eventId":667659,"siteUnitNumber":12615,"bathingSite":"COLWELL BAY","eventStart":"2022-11-15T10:38:13","eventStop":"2022-11-16T21:00:01.817","duration":2061,"activity":"Genuine - Non Impacting","associatedSiteId":109657,"outfallName":"THE PROMENADE TOTLAND PIER NO2","isImpacting":false},{"id":80201589,"eventId":669740,"siteUnitNumber":12605,"bathingSite":"STOKES BAY","eventStart":"2022-11-16T16:23:23","eventStop":"2022-11-16T21:00:01.817","duration":276,"activity":"Under Review ","associatedSiteId":109822,"outfallName":"PIER ROAD SOUTHSEA","isImpacting":false},{"id":80201684,"eventId":670044,"siteUnitNumber":12602,"bathingSite":"BEACHLANDS WEST","eventStart":"2022-11-16T18:15:00","eventStop":"2022-11-16T21:00:01.817","duration":165,"activity":"Under Review - Non Impacting","associatedSiteId":109823,"outfallName":"FORT CUMBERLAND NO1","isImpacting":false},{"id":80201694,"eventId":669832,"siteUnitNumber":12620,"bathingSite":"ST HELENS","eventStart":"2022-11-16T16:46:54","eventStop":"2022-11-16T21:00:01.817","duration":253,"activity":"Under Review ","associatedSiteId":109787,"outfallName":"SALTERNS ROAD SEAVIEW","isImpacting":false},{"id":80201791,"eventId":670063,"siteUnitNumber":12617,"bathingSite":"COWES","eventStart":"2022-11-16T18:27:16","eventStop":"2022-11-16T21:00:01.817","duration":152,"activity":"Under Review ","associatedSiteId":109654,"outfallName":"WHITFORD BRIDGE NORTHWOOD","isImpacting":false},{"id":80201792,"eventId":668939,"siteUnitNumber":12549,"bathingSite":"HERNE BAY CENTRAL","eventStart":"2022-11-16T08:04:13","eventStop":"2022-11-16T21:00:01.817","duration":775,"activity":"Genuine - Non Impacting","associatedSiteId":109830,"outfallName":"SWALECLIFFE NO1","isImpacting":false},{"id":80201981,"eventId":670181,"siteUnitNumber":12547,"bathingSite":"WEST BEACH WHITSTABLE","eventStart":"2022-11-16T18:56:07","eventStop":"2022-11-16T21:00:01.817","duration":123,"activity":"Under Review - Non Impacting","associatedSiteId":109832,"outfallName":"GORREL NO1","isImpacting":false},{"id":80202038,"eventId":669421,"siteUnitNumber":12551,"bathingSite":"HERNE BAY","eventStart":"2022-11-16T12:30:25","eventStop":"2022-11-16T21:00:01.817","duration":509,"activity":"Genuine ","associatedSiteId":109682,"outfallName":"MAY STREET HERNE BAY NO3","isImpacting":false},{"id":80202074,"eventId":670136,"siteUnitNumber":12661,"bathingSite":"LANGSTONE HARBOUR","eventStart":"2022-11-16T18:30:11","eventStop":"2022-11-16T21:00:01.817","duration":149,"activity":"Under Review ","associatedSiteId":109818,"outfallName":"KIRTLEY CLOSE DRAYTON","isImpacting":false},{"id":80202116,"eventId":670044,"siteUnitNumber":12603,"bathingSite":"EASTNEY","eventStart":"2022-11-16T18:15:00","eventStop":"2022-11-16T21:00:01.817","duration":165,"activity":"Under Review - Non Impacting","associatedSiteId":109823,"outfallName":"FORT CUMBERLAND NO1","isImpacting":false},{"id":80202227,"eventId":668939,"siteUnitNumber":12548,"bathingSite":"TANKERTON","eventStart":"2022-11-16T08:04:13","eventStop":"2022-11-16T21:00:01.817","duration":775,"activity":"Genuine ","associatedSiteId":109830,"outfallName":"SWALECLIFFE NO1","isImpacting":false},{"id":80202232,"eventId":670063,"siteUnitNumber":12616,"bathingSite":"GURNARD","eventStart":"2022-11-16T18:27:16","eventStop":"2022-11-16T21:00:01.817","duration":152,"activity":"Under Review ","associatedSiteId":109654,"outfallName":"WHITFORD BRIDGE NORTHWOOD","isImpacting":false},{"id":80202342,"eventId":667659,"siteUnitNumber":12614,"bathingSite":"TOTLAND BAY","eventStart":"2022-11-15T10:38:13","eventStop":"2022-11-16T21:00:01.817","duration":2061,"activity":"Genuine - Non Impacting","associatedSiteId":109657,"outfallName":"THE PROMENADE TOTLAND PIER NO2","isImpacting":false},{"id":80202354,"eventId":670039,"siteUnitNumber":12618,"bathingSite":"RYDE","eventStart":"2022-11-16T18:12:43","eventStop":"2022-11-16T21:00:01.817","duration":167,"activity":"Under Review ","associatedSiteId":109782,"outfallName":"AUGUSTA ROAD RYDE","isImpacting":false},{"id":80202377,"eventId":670181,"siteUnitNumber":12548,"bathingSite":"TANKERTON","eventStart":"2022-11-16T18:56:07","eventStop":"2022-11-16T21:00:01.817","duration":123,"activity":"Under Review ","associatedSiteId":109832,"outfallName":"GORREL NO1","isImpacting":false},{"id":80202459,"eventId":669724,"siteUnitNumber":12617,"bathingSite":"COWES","eventStart":"2022-11-16T16:01:44","eventStop":"2022-11-16T21:00:01.817","duration":298,"activity":"Under Review - Non Impacting","associatedSiteId":109650,"outfallName":"MARSH ROAD GURNARD","isImpacting":false},{"id":80202473,"eventId":669724,"siteUnitNumber":12616,"bathingSite":"GURNARD","eventStart":"2022-11-16T16:01:44","eventStop":"2022-11-16T21:00:01.817","duration":298,"activity":"Under Review ","associatedSiteId":109650,"outfallName":"MARSH ROAD GURNARD","isImpacting":false},{"id":80202507,"eventId":670191,"siteUnitNumber":12608,"bathingSite":"CALSHOT","eventStart":"2022-11-16T19:06:12","eventStop":"2022-11-16T21:00:01.817","duration":113,"activity":"Under Review ","associatedSiteId":109826,"outfallName":"ASHLETT CREEK FAWLEY","isImpacting":false},{"id":80202708,"eventId":667350,"siteUnitNumber":12618,"bathingSite":"RYDE","eventStart":"2022-11-15T08:00:00","eventStop":"2022-11-16T21:00:01.817","duration":2220,"activity":"Genuine ","associatedSiteId":109778,"outfallName":"PRINCE CONSORT RYDE NEW","isImpacting":false},{"id":80202762,"eventId":669961,"siteUnitNumber":12572,"bathingSite":"LITTLESTONE","eventStart":"2022-11-16T17:58:00","eventStop":"2022-11-16T21:00:01.817","duration":182,"activity":"Under Review ","associatedSiteId":109908,"outfallName":"NEW ROMNEY","isImpacting":false},{"id":80202771,"eventId":670074,"siteUnitNumber":12575,"bathingSite":"HASTINGS PELHAM BEACH","eventStart":"2022-11-16T18:43:29","eventStop":"2022-11-16T21:00:01.817","duration":136,"activity":"Under Review - Non Impacting","associatedSiteId":109950,"outfallName":"ST HELENS DOWN HASTINGS","isImpacting":false},{"id":80202772,"eventId":670074,"siteUnitNumber":12576,"bathingSite":"ST LEONARDS","eventStart":"2022-11-16T18:43:29","eventStop":"2022-11-16T21:00:01.817","duration":136,"activity":"Under Review - Non Impacting","associatedSiteId":109950,"outfallName":"ST HELENS DOWN HASTINGS","isImpacting":false},{"id":80202948,"eventId":669900,"siteUnitNumber":12615,"bathingSite":"COLWELL BAY","eventStart":"2022-11-16T17:29:37","eventStop":"2022-11-16T21:00:01.817","duration":210,"activity":"Under Review - Non Impacting","associatedSiteId":109665,"outfallName":"THORLEY ROAD BOULDNOR","isImpacting":false},{"id":80202971,"eventId":669900,"siteUnitNumber":12614,"bathingSite":"TOTLAND BAY","eventStart":"2022-11-16T17:29:37","eventStop":"2022-11-16T21:00:01.817","duration":210,"activity":"Under Review - Non Impacting","associatedSiteId":109665,"outfallName":"THORLEY ROAD BOULDNOR","isImpacting":false},{"id":80203011,"eventId":667785,"siteUnitNumber":12596,"bathingSite":"PAGHAM","eventStart":"2022-11-15T11:39:05","eventStop":"2022-11-16T21:00:01.817","duration":2000,"activity":"Genuine ","associatedSiteId":109911,"outfallName":"SUMMER LANE PAGHAM","isImpacting":false}]},{"currentPage":3,"totalItems":16706,"totalPages":669,"items":[{"id":80203017,"eventId":670044,"siteUnitNumber":12601,"bathingSite":"BEACHLANDS CENTRAL","eventStart":"2022-11-16T18:15:00","eventStop":"2022-11-16T21:00:01.817","duration":165,"activity":"Under Review - Non Impacting","associatedSiteId":109823,"outfallName":"FORT CUMBERLAND NO1","isImpacting":false},{"id":80203075,"eventId":669160,"siteUnitNumber":12549,"bathingSite":"HERNE BAY CENTRAL","eventStart":"2022-11-16T09:44:46","eventStop":"2022-11-16T21:00:01.817","duration":675,"activity":"Under Review ","associatedSiteId":109835,"outfallName":"SWALECLIFFE NO2","isImpacting":false},{"id":80203083,"eventId":669160,"siteUnitNumber":12548,"bathingSite":"TANKERTON","eventStart":"2022-11-16T09:44:46","eventStop":"2022-11-16T21:00:01.817","duration":675,"activity":"Under Review - Non Impacting","associatedSiteId":109835,"outfallName":"SWALECLIFFE NO2","isImpacting":false},{"id":80203263,"eventId":669722,"siteUnitNumber":12617,"bathingSite":"COWES","eventStart":"2022-11-16T15:55:00","eventStop":"2022-11-16T21:00:01.817","duration":305,"activity":"Genuine - Non Impacting","associatedSiteId":109700,"outfallName":"MARKET HILL COWES","isImpacting":false},{"id":80203493,"eventId":670003,"siteUnitNumber":12619,"bathingSite":"SEAGROVE","eventStart":"2022-11-16T16:21:31","eventStop":"2022-11-16T21:00:01.817","duration":278,"activity":"Under Review - Non Impacting","associatedSiteId":102971,"outfallName":"SPRING VALE","isImpacting":false},{"id":80203513,"eventId":669851,"siteUnitNumber":12662,"bathingSite":"CHICHESTER HARBOUR","eventStart":"2022-11-16T17:07:26","eventStop":"2022-11-16T21:00:01.817","duration":232,"activity":"Under Review ","associatedSiteId":109836,"outfallName":"CHICHESTER","isImpacting":false},{"id":80203537,"eventId":670195,"siteUnitNumber":12604,"bathingSite":"SOUTHSEA EAST","eventStart":"2022-11-16T19:13:11","eventStop":"2022-11-16T21:00:01.817","duration":106,"activity":"Under Review - Non Impacting","associatedSiteId":109823,"outfallName":"FORT CUMBERLAND NO1","isImpacting":false},{"id":80203538,"eventId":670195,"siteUnitNumber":12661,"bathingSite":"LANGSTONE HARBOUR","eventStart":"2022-11-16T19:13:11","eventStop":"2022-11-16T21:00:01.817","duration":106,"activity":"Under Review - Non Impacting","associatedSiteId":109823,"outfallName":"FORT CUMBERLAND NO1","isImpacting":false},{"id":80203543,"eventId":670007,"siteUnitNumber":12661,"bathingSite":"LANGSTONE HARBOUR","eventStart":"2022-11-16T17:11:08","eventStop":"2022-11-16T21:00:01.817","duration":228,"activity":"Under Review ","associatedSiteId":109817,"outfallName":"MAINLAND DRAYTON","isImpacting":false},{"id":80203575,"eventId":670195,"siteUnitNumber":12601,"bathingSite":"BEACHLANDS CENTRAL","eventStart":"2022-11-16T19:13:11","eventStop":"2022-11-16T21:00:01.817","duration":106,"activity":"Under Review - Non Impacting","associatedSiteId":109823,"outfallName":"FORT CUMBERLAND NO1","isImpacting":false},{"id":80203691,"eventId":669722,"siteUnitNumber":12616,"bathingSite":"GURNARD","eventStart":"2022-11-16T15:55:00","eventStop":"2022-11-16T21:00:01.817","duration":305,"activity":"Genuine - Non Impacting","associatedSiteId":109700,"outfallName":"MARKET HILL COWES","isImpacting":false},{"id":80204122,"eventId":668438,"siteUnitNumber":12595,"bathingSite":"BOGNOR REGIS (ALDWICK)","eventStart":"2022-11-15T19:56:00","eventStop":"2022-11-16T21:00:01.817","duration":1504,"activity":"Genuine - Non Impacting","associatedSiteId":109959,"outfallName":"WEST PARK BOGNOR REGIS","isImpacting":false},{"id":80204352,"eventId":669748,"siteUnitNumber":12618,"bathingSite":"RYDE","eventStart":"2022-11-16T16:29:00","eventStop":"2022-11-16T21:00:01.817","duration":271,"activity":"Under Review ","associatedSiteId":109780,"outfallName":"LADIES WALK BINSTEAD","isImpacting":false},{"id":80204488,"eventId":668438,"siteUnitNumber":12596,"bathingSite":"PAGHAM","eventStart":"2022-11-15T19:56:00","eventStop":"2022-11-16T21:00:01.817","duration":1504,"activity":"Genuine - Non Impacting","associatedSiteId":109959,"outfallName":"WEST PARK BOGNOR REGIS","isImpacting":false},{"id":80204489,"eventId":668438,"siteUnitNumber":12594,"bathingSite":"BOGNOR REGIS EAST","eventStart":"2022-11-15T19:56:00","eventStop":"2022-11-16T21:00:01.817","duration":1504,"activity":"Genuine ","associatedSiteId":109959,"outfallName":"WEST PARK BOGNOR REGIS","isImpacting":false},{"id":80204713,"eventId":669870,"siteUnitNumber":12615,"bathingSite":"COLWELL BAY","eventStart":"2022-11-16T16:56:12","eventStop":"2022-11-16T21:00:01.817","duration":243,"activity":"Under Review - Non Impacting","associatedSiteId":109663,"outfallName":"THE INSTITUTE YARMOUTH NO1","isImpacting":false},{"id":80204813,"eventId":670056,"siteUnitNumber":12583,"bathingSite":"SALTDEAN","eventStart":"2022-11-16T18:21:58","eventStop":"2022-11-16T21:00:01.817","duration":158,"activity":"Under Review ","associatedSiteId":109955,"outfallName":"PORTOBELLO BRIGHTON NO1","isImpacting":false},{"id":80204818,"eventId":669865,"siteUnitNumber":12583,"bathingSite":"SALTDEAN","eventStart":"2022-11-16T16:46:29","eventStop":"2022-11-16T21:00:01.817","duration":253,"activity":"Under Review - Non Impacting","associatedSiteId":109957,"outfallName":"PORTOBELLO BRIGHTON NO2","isImpacting":false},{"id":80204866,"eventId":670226,"siteUnitNumber":12583,"bathingSite":"SALTDEAN","eventStart":"2022-11-16T19:40:46","eventStop":"2022-11-16T21:00:01.817","duration":79,"activity":"Under Review ","associatedSiteId":109955,"outfallName":"PORTOBELLO BRIGHTON NO1","isImpacting":false},{"id":80204868,"eventId":670055,"siteUnitNumber":12583,"bathingSite":"SALTDEAN","eventStart":"2022-11-16T18:21:58","eventStop":"2022-11-16T21:00:01.817","duration":158,"activity":"Under Review - Non Impacting","associatedSiteId":109957,"outfallName":"PORTOBELLO BRIGHTON NO2","isImpacting":false},{"id":80204901,"eventId":670117,"siteUnitNumber":12600,"bathingSite":"EASTOKE","eventStart":"2022-11-16T18:46:00","eventStop":"2022-11-16T21:00:01.817","duration":134,"activity":"Under Review ","associatedSiteId":109775,"outfallName":"GREEN LANE HAYLING ISLAND","isImpacting":false},{"id":80205136,"eventId":668677,"siteUnitNumber":12591,"bathingSite":"LITTLEHAMPTON","eventStart":"2022-11-16T02:34:33","eventStop":"2022-11-16T21:00:01.817","duration":1105,"activity":"Genuine ","associatedSiteId":109968,"outfallName":"FORD ROAD ARUNDEL","isImpacting":false},{"id":80205842,"eventId":667364,"siteUnitNumber":12662,"bathingSite":"CHICHESTER HARBOUR","eventStart":"2022-11-15T08:03:37","eventStop":"2022-11-16T21:00:01.817","duration":2216,"activity":"Genuine ","associatedSiteId":109850,"outfallName":"THORNHAM","isImpacting":false},{"id":80205846,"eventId":670003,"siteUnitNumber":12618,"bathingSite":"RYDE","eventStart":"2022-11-16T16:21:31","eventStop":"2022-11-16T21:00:01.817","duration":278,"activity":"Under Review - Non Impacting","associatedSiteId":102971,"outfallName":"SPRING VALE","isImpacting":false},{"id":80205883,"eventId":670059,"siteUnitNumber":12661,"bathingSite":"LANGSTONE HARBOUR","eventStart":"2022-11-16T18:26:00","eventStop":"2022-11-16T21:00:01.817","duration":154,"activity":"Under Review ","associatedSiteId":109820,"outfallName":"ST ANDREWS ROAD PORTSMOUTH","isImpacting":false}]},